R Data Manipulation Take Home Quiz
…
Create an author level data frame (ie, one row per author) that tracks the number publications they have in NEJM and average number of months between publications. (-1 if they have only one publication)

Q: Do we calculate average num of months even for authors that only have 2 publications? I still calculated the mean here (for these authors, ave_num_months, num of months btn pubs/1)

# A tibble: 6,892 × 4
# Groups:   firstAuthorF [4,670]
   firstAuthorF firstAuthorL num_pub ave_num_months
   <chr>        <chr>          <int>          <dbl>
 1 A Dorothee   Heemskerk          2            5  
 2 A Emre       Eskazan            1           -1  
 3 A Fuat       Kalyoncu           1           -1  
 4 A Hunter     Shain              2            4  
 5 A Keith      Stewart            2            4  
 6 A Kumar      Guddati            1           -1  
 7 A Laurie     Shroyer            2            3  
 8 A Lianne     Messchendorp       1           -1  
 9 A Marc       Gillinov           3            8  
10 A Metin      Gülmezoglu         1           -1  
11 A Michael    Lincoff            1           -1  
12 A Razzaque   Ahmed              1           -1  
13 A Tariro     Makadzange         1           -1  
14 A Taylor     Kelley             1           -1  
15 A Titia      Lely               1           -1  
16 A-Rembert    Koczulla           1           -1  
17 Aaron        Belkin             1           -1  
18 Aaron        McKethan           1           -1  
19 Aaron        Richterman         2           26  
20 Aaron        Sibley             1           -1  
21 Aaron        Spital             7           10.7
22 Aaron A R    Tobian             2            5  
23 Aaron B      Caughey            2            4  
24 Aaron D      Viny               1           -1  
25 Aaron I      Vinik              1           -1  
26 Aaron J      Stonestrom         1           -1  
27 Aaron L      Berkowitz          1           -1  
28 Aaron L      Schwartz           2           25  
29 Aaron M      Goodman            1           -1  
30 Aaron S      Kelly              1           -1  
31 Aaron S      Kesselheim         2            8  
32 Aaron W      Aday               1           -1  
33 Aasma        Shaukat            1           -1  
34 Abby L       Olsen              1           -1  
35 Abdallah M   Beano              1           -1  
36 Abdenasser   Bardai             1           -1  
37 Abdul        Rehman             1           -1  
38 AbdulAziz A  Asbeutah           1           -1  
39 Abdullah     Alkhodair          1           -1  
40 Abdullah     Alsultan           1           -1  
41 Abdurrahman  Oguzhan            1           -1  
42 Abel         Kakuru             1           -1  
43 Abhaya V     Kulkarni           1           -1  
44 Abhilash     Koratala           1           -1  
45 Abhirup      Banerjee           1           -1  
46 Abhishek     Keraliya           1           -1  
47 Abhishek     Maiti              1           -1  
48 Abhishek     Sharma             2           37  
49 Abigail      Silva              1           -1  
50 Abigail      Zuger              1           -1  
# ℹ 6,842 more rows
…
